<?xml version="1.0"?>
<robot name="lio" xmlns:xacro="http://tixiaoshan.github.io/">
  <xacro:property name="PI" value="3.1415926535897931" />

  <link name="chassis_link_lio"></link>

  <link name="base_link_lio"></link>
  <joint name="base_link_lio_joint" type="fixed">
    <parent link="base_link_lio"/>
    <child link="chassis_link_lio" />
    <origin xyz="0 0 0" rpy="0 0 0" />
  </joint>

  <link name="imu_link_lio"> </link>
  <joint name="imu_joint" type="fixed">
    <parent link="chassis_link_lio" />
    <child link="imu_link_lio" />
    <origin xyz="0 0 0" rpy="0 0 0" />
  </joint>

  <link name="velodyne"> </link>
  <joint name="velodyne_joint" type="fixed">
    <parent link="chassis_link_lio" />
    <child link="velodyne" />
    <origin xyz="0 0 0" rpy="0 0 0" />
  </joint>

  <link name="navsat_link_lio"> </link>
  <joint name="navsat_joint" type="fixed">
    <parent link="chassis_link_lio" />
    <child link="navsat_link_lio" />
    <origin xyz="0 0 0" rpy="0 0 0" />
  </joint>

</robot>
